{
    "variables": {
        "disk_size": "100000",
        "ssh_user": "trans",
        "ssh_password": "password",
        "my_iso": "http://web.garwood.local/CentOS-7-x86_64-DVD-1804.iso",
        "my_md5": "660aab9894136872770ecb6e1e370c08"
    },

    "builders":
    [
        {
            "name": "centos-7-server-x86_64",
            "headless": false,

            "ssh_pty" : "true",
            "type": "qemu",
            "format": "qcow2",
            "accelerator": "kvm",
            "disk_size": "{{ user `disk_size`}}",

            "iso_url": "{{ user `my_iso` }}",
            "iso_checksum": "{{ user `my_md5` }}",
            "iso_checksum_type": "md5",	

            "http_directory": "http",
            "ssh_username": "{{ user `ssh_user` }}",
            "ssh_password": "{{ user `ssh_password` }}",
            "ssh_timeout": "30m",

            "boot_wait": "2s",
            "boot_command": [
               "<tab> text ks=http://{{ .HTTPIP }}:{{ .HTTPPort }}/anaconda-ks.conf<enter><wait>"   
            ]
        }
    ]
}
